<?xml version="1.0" encoding="utf-8"?>
<!-- Generator: Adobe Illustrator 14.0.0, SVG Export Plug-In . SVG Version: 6.00 Build 43363)  -->
<!DOCTYPE svg PUBLIC "-//W3C//DTD SVG 1.1//EN" "http://www.w3.org/Graphics/SVG/1.1/DTD/svg11.dtd">
<svg version="1.1" id="Layer_1" xmlns="http://www.w3.org/2000/svg" xmlns:xlink="http://www.w3.org/1999/xlink" x="0px" y="0px"
	 width="792px" height="612px" viewBox="0 0 792 612" enable-background="new 0 0 792 612" xml:space="preserve">
<g>
	<defs>
		<rect id="SVGID_1_" x="109" y="142" width="575.389" height="329"/>
	</defs>
	<clipPath id="SVGID_2_">
		<use xlink:href="#SVGID_1_"  overflow="visible"/>
	</clipPath>
	<path clip-path="url(#SVGID_2_)" fill="#3DB54A" d="M339.456,261.771c6.365,0,11.526-5.16,11.526-11.526
		c0-6.365-5.161-11.524-11.526-11.524c-6.365,0-11.526,5.159-11.526,11.524C327.93,256.611,333.091,261.771,339.456,261.771"/>
	<path clip-path="url(#SVGID_2_)" fill="#0C9547" d="M339.456,261.771c-1.852-1.881,6.831-0.704,6.253-3.248
		c-0.784-3.446-22.321-12.374-6.253-19.803c-6.365,0-11.526,5.159-11.526,11.524C327.93,256.611,333.091,261.771,339.456,261.771"/>
</g>
<polygon points="339.521,251.34 335.448,241.638 342.967,241.638 "/>
<g>
	<defs>
		<rect id="SVGID_3_" x="109" y="142" width="575.389" height="329"/>
	</defs>
	<clipPath id="SVGID_4_">
		<use xlink:href="#SVGID_3_"  overflow="visible"/>
	</clipPath>
	<path clip-path="url(#SVGID_4_)" fill="#3DB54A" d="M452.268,261.771c6.365,0,11.525-5.16,11.525-11.526
		c0-6.365-5.16-11.524-11.525-11.524s-11.525,5.159-11.525,11.524C440.742,256.611,445.902,261.771,452.268,261.771"/>
	<path clip-path="url(#SVGID_4_)" fill="#0C9547" d="M452.268,261.771c-1.852-1.881,6.831-0.704,6.253-3.248
		c-0.784-3.446-22.321-12.374-6.253-19.803c-6.365,0-11.525,5.159-11.525,11.524C440.742,256.611,445.902,261.771,452.268,261.771"
		/>
</g>
<polygon points="452.333,251.34 448.26,241.638 455.779,241.638 "/>
<g>
	<defs>
		<rect id="SVGID_5_" x="109" y="142" width="575.389" height="329"/>
	</defs>
	<clipPath id="SVGID_6_">
		<use xlink:href="#SVGID_5_"  overflow="visible"/>
	</clipPath>
	<path clip-path="url(#SVGID_6_)" fill="#F58220" d="M482.174,247.127c-3.051,4.407-10.847,11.406-12.881,14.277
		c-14.238-7.837-54.917-9.193-64.07-9.87C412.402,248.145,457.089,241.364,482.174,247.127 M388.01,251.534
		c-9.153,0.677-49.832,2.033-64.069,9.87c-2.034-2.871-9.831-9.87-12.882-14.277C336.144,241.364,380.831,248.145,388.01,251.534
		 M546.206,286.992c-0.362-11.571,18.803-19.526,23.503-23.503c6.146-84.251,26.51-111.348,26.396-116.433
		c-20.973,18.08-81.72,68.544-93.291,74.488c-7.231,6.961-107.023,30.205-107.023,30.205L287.307,222.99l-89.313-72.679
		c0,0,5.062,8.678,10.124,27.164c0.538,1.963,16.451,10.902,16.982,13.089c0.418,1.718-14.543-3.361-14.136-1.504
		c3.955,18.027,7.279,42.637,7.279,74.43c9.04,4.7,33.628,17.356,25.673,20.972c-65.086,24.227-79.912,65.81-86.059,79.188
		c11.571-5.424,50.623-32.543,56.409-27.707c-15.549,17.583-23.142,43.979-23.142,43.979s39.052-27.843,45.922-25.312
		c-10.486,16.271-14.825,53.154-14.825,53.154s29.288-26.758,36.52-24.589c94.737,79.551,128.365,80.997,136.727,82.805
		c27.074-2.893,123.619-58.577,135.913-80.273c20.249,2.531,38.328,22.419,38.328,22.419s-8.678-52.431-13.74-52.431
		c19.887,3.616,40.137,21.696,44.837,26.396c1.447-11.209-22.057-43.752-23.865-47.165c18.804,1.356,45.923,23.662,57.493,31.617
		C604.061,298.925,553.438,289.523,546.206,286.992"/>
	<path clip-path="url(#SVGID_6_)" fill="#FFD340" d="M596.492,149.251c-31.097,17.355-67.346,94.712-67.346,94.712l14.463,40.137
		c0,0,25.312-21.696,31.82-23.142C571.813,253.364,579.023,177.816,596.492,149.251"/>
	<path clip-path="url(#SVGID_6_)" fill="#FFD340" d="M196.819,149.251c31.097,17.355,67.346,94.712,67.346,94.712L249.702,284.1
		c0,0-25.312-21.696-31.82-23.142c2.4-5.041,0.03-40.03-6.946-71.34c-0.425-1.91,13.365,2.336,12.905,0.462
		c-0.585-2.388-15.431-10.881-16.071-13.184C204.736,165.997,201.083,156.224,196.819,149.251"/>
	<path clip-path="url(#SVGID_6_)" fill="#E4AD36" d="M262.357,242.077c-0.908-6.522-38.487-72.681-45.922-75.572
		c10.686,18.747,18.593,41.722,23.446,61.834c-3.468-2.896-4.725-3.438-8.35-6.692c5.967,16.272,15.469,52.722,11.662,54.859
		C252.251,272.208,263.508,250.347,262.357,242.077"/>
	<path clip-path="url(#SVGID_6_)" fill="#E4AD36" d="M530.95,242.077c0.908-6.522,38.487-72.68,45.922-75.573
		c-10.687,18.747-18.593,41.723-23.446,61.835c3.468-2.895,4.726-3.438,8.351-6.691c-5.968,16.271-15.47,52.721-11.662,54.858
		C541.056,272.208,529.799,250.347,530.95,242.077"/>
	<path clip-path="url(#SVGID_6_)" fill="#FFD340" d="M278.177,312.892c11.187-41.277,29.492-40.958,29.492-40.958
		s27.12-3.816,88.477,15.845c39.413-15.159,81.837-17.44,90.851-16.164c18.982,9.073,26.241,35.514,26.88,42.972
		c-3.49,14.577-11.175,21.997-27.784,29.116c22.373,0,66.708,20.377,81.064,60.378c-16.908-13.221-33.027-22.266-32.024-20.34
		c-67.16,61.019-94.578,65.426-138.647,83.392c-50.648-7.645-105.318-62.686-138.046-82.903c-6.929,6.781-18.229,6.631-34.84,21.547
		c24.846-50.51,64.635-64.272,85.991-61.301C281.266,336.037,281.47,322.867,278.177,312.892"/>
	<path clip-path="url(#SVGID_6_)" fill="#E4AD36" d="M394.654,303.876c0.678,4.934,1.909,82.915,1.909,82.915
		s-46.999-1.17-72.736-20.604c-3.198,3.842-1.243,0.994-6.327,9.944c-6.328-2.713-13.879-34.22-13.879-34.22
		s-25.232-15.463-22.972-16.909c3.272-1.023,1.439-4.183,3.705-6.381c-3.037-3.361-6.975-4.881-5.938-8.029
		c7.143-21.695,21.733-39.592,32.224-39.51C351.159,271.401,382.925,405.961,394.654,303.876"/>
	<path clip-path="url(#SVGID_6_)" fill="#8D959B" d="M344.459,255.661c18.126-6.84,91.348-4.467,102.875,1.975
		c-16.73,6.002-38.746,19.721-51.188,28.86C385.937,278.992,354.351,262.043,344.459,255.661"/>
	<path clip-path="url(#SVGID_6_)" fill="#626A70" d="M344.459,255.661c20.951-4.195,46.083-5.582,58.227-2.508
		c-31.586,2.029-4.946,22.608-6.541,33.343C385.937,278.992,354.351,262.043,344.459,255.661"/>
	<path clip-path="url(#SVGID_6_)" fill="#E4AD36" d="M262.874,386.404c2.386-2.062,69.877,65.375,127.014,78.408
		c-28.455-32.822-48.376-61.977-35.325-76.214c7.955-8.678,42.996,4.839,40.498,3.979c-37.55-12.934-92.653-50.531-90.346-51.888
		c-65.474,16.896-76.709,58.201-78.795,60.705C222.966,406.915,255.1,385.199,262.874,386.404"/>
	<path clip-path="url(#SVGID_6_)" fill="#E4AD36" d="M524.835,387.695c-6.629-5.725-15.189-14.948-22.599-19.306
		c11.435,1.064,18.11,2.718,25.472,4.987C530.662,378.897,532.609,386.49,524.835,387.695"/>
	<path clip-path="url(#SVGID_6_)" fill="#E4AD36" d="M397.6,305.046c-0.678,4.933-1.066,87.169-1.066,87.169
		s46.156-5.424,71.892-24.859c3.199,3.843,1.244,0.994,6.328,9.944c6.328-2.712,11.254-38.936,11.254-38.936
		s10.216-0.388,7.955-1.834c-25.717-8.045-26.28,11.423-39.549,16.091C439.771,357.773,399.362,381.91,397.6,305.046"/>
	<path clip-path="url(#SVGID_6_)" fill="#C06616" d="M547.295,348.102c0,0-5.088-10.642-6.341-13.288
		c15.652,1.535,38.975,14.312,56.467,39.639C589.646,369.209,547.295,348.102,547.295,348.102"/>
	<path clip-path="url(#SVGID_6_)" fill="#C06616" d="M562.104,327.375c0,0-8.999-7.025-20.34-15.531
		c26.775,2.403,57.284,10.675,89.42,50.676C615.528,346.864,562.104,327.375,562.104,327.375"/>
	<path clip-path="url(#SVGID_6_)" fill="#C06616" d="M244.91,348.102c0,0,5.088-10.642,6.341-13.288
		c-15.652,1.535-38.975,14.312-56.467,39.639C202.559,369.209,244.91,348.102,244.91,348.102"/>
	<path clip-path="url(#SVGID_6_)" fill="#C06616" d="M230.102,327.375c0,0,8.999-7.025,20.339-15.531
		c-26.774,2.403-57.283,10.675-89.419,50.676C176.676,346.864,230.102,327.375,230.102,327.375"/>
	<path clip-path="url(#SVGID_6_)" fill="#C06616" d="M312.754,268.189c0,0,8.407-2.219,8.181-7.503
		c-0.163-3.827-12.605-9.897-7.842-13.469c-9.346,0.431-18.645,2.233-26.393,5.526C299.291,259.911,312.754,268.189,312.754,268.189
		"/>
	<path clip-path="url(#SVGID_6_)" fill="#C06616" d="M480.928,268.189c0,0-8.406-2.219-8.181-7.503
		c0.163-3.827,12.604-9.897,7.842-13.469c9.347,0.431,18.646,2.233,26.394,5.526C494.391,259.911,480.928,268.189,480.928,268.189"
		/>
</g>
<polygon fill="#2A3339" points="361.229,263.06 371.061,261.703 389.275,281.365 "/>
<polygon fill="#2A3339" points="431.514,263.06 421.683,261.703 403.468,281.365 "/>
<g>
	<defs>
		<rect id="SVGID_7_" x="109" y="142" width="575.389" height="329"/>
	</defs>
	<clipPath id="SVGID_8_">
		<use xlink:href="#SVGID_7_"  overflow="visible"/>
	</clipPath>
	<path clip-path="url(#SVGID_8_)" fill="#FFFFFF" d="M483.658,290.614c9.282,0.872,29.041,32.932,26.776,36.515
		c-2.265,3.584-9.358,12.397-22.083,13.946c2.086,8.792-0.626,22.561-5.812,33.783c-0.871-2.253-8.879-19.158-13.946-21.385
		c9.88-17.062,19.37-14.335,19.37-14.335S489.319,308.146,483.658,290.614"/>
	<path clip-path="url(#SVGID_8_)" fill="#FFFFFF" d="M308.383,290.614c-9.283,0.872-29.042,32.932-26.777,36.515
		c2.265,3.584,9.358,12.397,22.083,13.946c-2.086,8.792,0.626,22.561,5.812,33.783c0.871-2.253,8.88-19.158,13.947-21.385
		c-9.88-17.062-19.371-14.335-19.371-14.335S302.721,308.146,308.383,290.614"/>
	<path clip-path="url(#SVGID_8_)" fill="#BBC4CA" d="M307.207,291.693c-6.728,6.344-16.61,41.027-14.684,44.804
		c0.848,1.661,7.48,4.106,11.379,4.579C303.393,334.078,301.545,309.224,307.207,291.693"/>
	<path clip-path="url(#SVGID_8_)" fill="#BBC4CA" d="M309.713,374.858c0.872-2.253,8.881-19.157,13.947-21.386
		c-2.37-4.808-8.702-10.812-8.702-10.812S307.81,361.984,309.713,374.858"/>
	<path clip-path="url(#SVGID_8_)" fill="#BBC4CA" d="M485.047,291.693c6.728,6.344,17.065,40.781,15.139,44.558
		c-0.848,1.661-7.936,4.353-11.834,4.825C488.86,334.078,490.708,309.224,485.047,291.693"/>
	<path clip-path="url(#SVGID_8_)" fill="#BBC4CA" d="M482.54,374.858c-0.872-2.253-8.881-19.157-13.947-21.386
		c2.37-4.808,9.897-10.564,9.897-10.564S484.443,361.984,482.54,374.858"/>
	<path clip-path="url(#SVGID_8_)" d="M628.781,360.112c-6.678-8.329-31.831-29.702-66.606-32.694
		c9.039,7.143,20.505,19.545,34.063,45.802c-11.621-11.58-23.503-20.792-49.266-25.764c6.198,10.848,16.633,36.482,18.079,51.979
		c-6.741-10.899-24.407-22.42-37.967-26.216c-5.422,9.593-69.107,72.531-131.008,90.186
		c-61.901-17.654-125.586-80.593-131.008-90.186c-13.559,3.796-31.226,15.316-37.967,26.216
		c1.447-15.497,11.881-41.132,18.08-51.979c-25.764,4.972-37.644,14.184-49.267,25.764c13.56-26.257,25.025-38.659,34.065-45.802
		c-34.775,2.992-59.929,24.365-66.608,32.694c7.655-17.899,45.199-64.183,91.031-67.98c8.933-34,10.515-39.593,12.625-48.633
		c-8.437-18.419-16.62-34.689-30.722-54.69c23.504,17.288,43.784,34.479,49.555,37.515c18.531,4.52,26.215,6.328,47.006,10.9
		c-16.358-1.031-22.883-0.474-45.65,2.53c16.138-0.301,32.543-0.774,50.496,2.623c-11.643,0.971-33.05,2.026-52.033,10.355
		c5.411-1.229,10.848-2.363,16.576-3.337c6.101,5.855,8.821,7.638,14.234,11.918c-31.628,12.486-36.765,43.476-38.238,49.017
		c-3.186-5.615-5.969-14.979-6.376-15.97c-11.557,8.587-16.826,27.672-19.877,38.52c4.385-11.525,14.238-25.036,18.193-27.748
		c3.616,7.308,4.316,9.475,9.793,17.465c-0.672,1.796-0.91,2.085-1.168,3.955c4.649,11.139,17.904,18.027,23.156,18.362
		c-1.268,25.324,7.28,33.794,8.307,34.214c3.546-8.62,8.576-15.701,13.096-19.92c4.131,4.075,50.683,30.193,72.632,33.286v0.021
		c0.023-0.003,0.047-0.008,0.069-0.011c0.022,0.003,0.047,0.008,0.069,0.011v-0.021c21.95-3.093,68.502-29.211,72.633-33.286
		c4.519,4.219,9.549,11.3,13.096,19.92c1.027-0.42,9.574-8.89,8.307-34.214c5.251-0.335,18.506-7.224,23.155-18.362
		c-0.258-1.87-0.496-2.159-1.167-3.955c5.843-8.485,7.821-12.418,9.742-18.52c3.955,2.712,13.858,17.277,18.242,28.803
		c-3.051-10.848-8.427-31.062-19.982-39.649c-0.408,0.991-1.809,9.49-6.147,17.288c-1.473-5.54-6.732-36.719-38.36-49.205
		c5.412-4.28,8.133-6.062,14.234-11.918c5.729,0.974,11.164,2.108,16.575,3.337c-18.983-8.329-40.389-9.385-52.032-10.355
		c17.953-3.397,34.357-2.924,50.496-2.623c-22.768-3.004-29.291-3.562-45.65-2.53c20.791-4.572,28.475-6.381,47.007-10.9
		c5.77-3.036,26.051-20.227,49.554-37.515c-14.102,20.001-22.284,36.271-30.721,54.69c2.108,9.04,3.69,14.633,12.625,48.633
		C583.584,295.93,621.127,342.213,628.781,360.112 M545.377,273.33c-5.034-10.847-7.105-15.499-12.868-29.228
		c28.927-58.76,42.397-74.881,59.632-89.464c-6.609,11.582-25.732,50.743-25.732,103.777
		C559.628,262.936,556.43,263.592,545.377,273.33 M416.547,250.188c1.314-1.7,41.077-4.462,58.684-2.087
		c-3.699,3.944-4.686,5.054-9.615,9.861C447.588,251.741,418.668,249.777,416.547,250.188 M316.925,248.102
		c17.605-2.375,57.368,0.387,58.683,2.087c-2.122-0.411-31.042,1.553-49.068,7.774C321.609,253.155,320.623,252.046,316.925,248.102
		 M322.472,266.11c3.722-1.794,7.458-3.391,16.497-5.888c11.733-0.936,48.637,21.442,50.438,23.996
		C345.538,270.021,336.237,266.788,322.472,266.11 M383.63,276.404c-7.703-4.521-11.041-6.509-18.015-10.758
		C367.146,265.135,369.586,261.127,383.63,276.404 M408.523,276.404c14.045-15.277,16.485-11.27,18.016-10.758
		C419.566,269.896,416.228,271.884,408.523,276.404 M453.185,260.223c9.854,2.724,13.591,4.771,17.313,6.565
		c-11.168-0.169-23.881,3.233-67.752,17.431C404.549,281.665,441.453,259.287,453.185,260.223 M506.919,325.97
		c-1.877,7.093-16.175,15.431-15.812,8.012c-0.092-15.634-0.859-26.464-3.589-38.678
		C494.941,300.654,505.232,316.869,506.919,325.97 M485.365,342.649c1.232,4.438,0.539,22.632-3.209,26.804
		c-2.982-8.136-5.694-12.354-8.858-16.573C475.205,348.784,483.393,338.204,485.365,342.649 M466.971,352.73
		c-3.027,3.243-32.845,18.229-67.422,25.763c-0.119-0.941-0.244-2.912-0.372-5.66c-0.94-20.148-2.039-82.011-2.039-84.663
		c3.843-2.787,68.601-18.157,81.403-14.323c14.555,4.358,27.656,14.375,33.854,38.506c-0.688,1.302-1.279,2.033-3.088,3.615
		c-4.505-9.283-17.477-27.496-30.133-29.981c5.725,17.777,6.779,32.588,6.314,50.992
		C480.229,336.609,474.564,339.773,466.971,352.73 M359.141,261.926c-6.164-3.029-3.816-1.607-8.797-4.415
		c22.162-4.343,42.887-3.285,45.733-3.559c2.847,0.273,23.572-0.784,45.733,3.559c-4.981,2.808-2.633,1.386-8.796,4.415
		c-14.49-7.438-22.619,6.992-36.937,24.203C381.759,268.918,373.63,254.488,359.141,261.926 M306.789,342.649
		c1.972-4.445,10.161,6.135,12.067,10.23c-3.164,4.219-5.876,8.438-8.859,16.573C306.25,365.281,305.556,347.087,306.789,342.649
		 M282.621,316.281c-1.732-1.835-2.174-2.627-2.862-3.929c6.199-24.131,19.3-34.147,33.854-38.506
		c12.802-3.834,77.561,11.536,81.403,14.323c0,2.632-1.115,62.918-2.03,83.949c-0.34,7.829,0.476-1.502-0.381,6.374
		c-34.577-7.533-64.394-22.52-67.421-25.763c-7.594-12.957-13.259-16.121-18.518-15.752c-0.466-18.404,0.589-33.215,6.314-50.992
		C300.324,288.472,287.126,306.997,282.621,316.281 M301.089,335.774c0.565,4.344-13.977-2.712-15.854-9.805
		c1.687-9.101,11.977-25.315,19.401-30.666C301.906,307.518,300.653,320.214,301.089,335.774 M259.645,244.103
		c-5.762,13.729-7.834,18.381-12.868,29.228c-11.053-9.738-14.251-10.395-21.031-14.915c0-26.253-4.26-49.007-9.365-66.697
		c4.695,0.191,8.311,0.492,12.303,0.806c-0.21-0.594-7.984-9.154-18.462-19.015c-3.855-9.661-6.267-14.601-8.472-18.465
		C218.391,170.946,230.718,185.343,259.645,244.103 M555.439,283.387c3.616-5.085,12.35-10.569,23.865-16.271
		c-3.254-56.272,11.511-104.673,20.929-125.115c-7.639,4.992-98.444,77.824-101.003,78.939
		c-2.744,1.195-100.463,28.546-103.154,28.95c-2.691-0.404-100.409-27.755-103.153-28.95c-2.559-1.115-93.365-73.947-101.004-78.939
		c3.515,7.628,7.774,19.149,11.563,33.52c5.841,4.186,12.847,9.775,17.668,13.64c-2.772-0.203-5.122-0.414-14.64-1.003
		c4.813,22.251,8.04,49.529,6.338,78.959c11.516,5.702,20.249,11.187,23.865,16.271c-36.304,10.59-72.253,45.474-87.607,95.527
		c0.6-0.17,21.688-20.741,58.228-37.966c-14.373,15.458-22.672,43.977-23.865,51.872c18.708-15.92,33.086-24.408,47.508-30.571
		c-8.136,14.299-13.88,44.377-13.88,57.887c14.072-18.44,27.632-23.864,38.931-28.385c12.974,8.899,72.319,60.496,139.979,79.249
		c67.936-18.753,129.498-71.966,140.117-79.249c11.3,4.521,24.858,9.944,38.931,28.385c0-13.51-5.744-43.588-13.88-57.887
		c14.423,6.163,28.8,14.651,47.508,30.571c-1.192-7.896-9.491-36.414-23.865-51.872c36.54,17.225,57.629,37.796,58.229,37.966
		C627.692,328.86,591.744,293.977,555.439,283.387"/>
	<path clip-path="url(#SVGID_8_)" fill="#E4AD36" d="M358.551,322.788c1.81,0,3.278-2.689,3.278-6.005
		c0-3.316-1.468-6.005-3.278-6.005c-1.81,0-3.278,2.688-3.278,6.005C355.272,320.099,356.741,322.788,358.551,322.788"/>
	<path clip-path="url(#SVGID_8_)" d="M358.046,313C336.768,299.44,142.135,349.653,109,330.896
		c27.798,21.695,216.827-23.78,247.291-12.848C359.283,319.317,360.516,314.588,358.046,313"/>
	<path clip-path="url(#SVGID_8_)" fill="#E4AD36" d="M375.921,335.807c1.81,0,3.278-2.689,3.278-6.005
		c0-3.316-1.468-6.005-3.278-6.005c-1.81,0-3.278,2.688-3.278,6.005C372.643,333.117,374.111,335.807,375.921,335.807"/>
	<path clip-path="url(#SVGID_8_)" d="M375.416,326.019c-33.686-13.771-217.968,74.603-251.102,55.846
		c27.797,21.694,218.883-61.73,249.347-50.799C376.653,332.336,377.886,327.605,375.416,326.019"/>
	<path clip-path="url(#SVGID_8_)" fill="#E4AD36" d="M329.167,300.704c1.045,0,1.892-1.552,1.892-3.466s-0.847-3.467-1.892-3.467
		c-1.045,0-1.892,1.553-1.892,3.467S328.122,300.704,329.167,300.704"/>
	<path clip-path="url(#SVGID_8_)" fill="#E4AD36" d="M456.628,302.06c1.045,0,1.892-1.552,1.892-3.466s-0.847-3.466-1.892-3.466
		s-1.892,1.552-1.892,3.466S455.583,302.06,456.628,302.06"/>
	<path clip-path="url(#SVGID_8_)" fill="#E4AD36" d="M434.838,322.788c-1.81,0-3.277-2.689-3.277-6.005
		c0-3.316,1.468-6.005,3.277-6.005c1.811,0,3.278,2.688,3.278,6.005C438.116,320.099,436.648,322.788,434.838,322.788"/>
	<path clip-path="url(#SVGID_8_)" d="M435.344,313c21.277-13.56,215.91,36.653,249.046,17.896
		c-27.799,21.695-216.827-23.78-247.292-12.848C434.106,319.317,432.873,314.588,435.344,313"/>
	<path clip-path="url(#SVGID_8_)" fill="#E4AD36" d="M417.468,335.807c-1.81,0-3.278-2.689-3.278-6.005
		c0-3.316,1.469-6.005,3.278-6.005s3.278,2.688,3.278,6.005C420.746,333.117,419.277,335.807,417.468,335.807"/>
	<path clip-path="url(#SVGID_8_)" d="M417.973,326.019c33.686-13.771,217.968,74.603,251.103,55.846
		c-27.798,21.694-218.884-61.73-249.348-50.799C416.736,332.336,415.503,327.605,417.973,326.019"/>
</g>
</svg>
