<?xml version="1.0" encoding="utf-8"?>
<!-- Generator: Adobe Illustrator 14.0.0, SVG Export Plug-In . SVG Version: 6.00 Build 43363)  -->
<!DOCTYPE svg PUBLIC "-//W3C//DTD SVG 1.1//EN" "http://www.w3.org/Graphics/SVG/1.1/DTD/svg11.dtd">
<svg version="1.1" id="Layer_1" xmlns="http://www.w3.org/2000/svg" xmlns:xlink="http://www.w3.org/1999/xlink" x="0px" y="0px"
	 width="792px" height="612px" viewBox="0 0 792 612" enable-background="new 0 0 792 612" xml:space="preserve">
<g>
	<defs>
		<rect id="SVGID_1_" x="201" y="118.571" width="438.989" height="366.429"/>
	</defs>
	<clipPath id="SVGID_2_">
		<use xlink:href="#SVGID_1_"  overflow="visible"/>
	</clipPath>
	<path clip-path="url(#SVGID_2_)" fill="#50B848" d="M540.504,339.451c-6.875-28.81-14.832-124.845,1.42-168.799
		c-14.406-0.739-208.322-25.068-246.736-23.27c28.811,93.899,9.604,144.052,5.378,192.068h33.036
		c2.801,11.604,13.205,44.416,0,96.035c38.414,38.414,134.449,38.414,172.863,0c0-5.187-9.601-26.486-9.604-48.019
		c-0.003-18.342,9.587-36.592,9.604-48.017H540.504z"/>
</g>
<polygon fill="#00642D" points="423.911,327.229 419.109,278.001 390.299,274.914 313.471,269.181 338.131,320.245 384.188,304.529 
	365.418,334.649 "/>
<g>
	<defs>
		<rect id="SVGID_3_" x="201" y="118.571" width="438.989" height="366.429"/>
	</defs>
	<clipPath id="SVGID_4_">
		<use xlink:href="#SVGID_3_"  overflow="visible"/>
	</clipPath>
	<path clip-path="url(#SVGID_4_)" fill="#00642D" d="M405.577,392.271l13.532-53.603l-28.811-3.087c0,0-9.604-5.935-38.414,3.87
		c5.238,21.848,4.908,67.225-2.183,90.796c11.786,19.31,64.282,24.446,64.282,24.446l5.125-45.715c0,0-38.414-5.922-44.962-17.581
		C386.719,387.469,405.577,392.271,405.577,392.271"/>
</g>
<polygon points="352.809,339.451 366.779,339.451 385.574,302.449 "/>
<polygon points="494.036,339.451 480.065,339.451 461.271,302.449 "/>
<rect x="300.964" y="377.865" width="32.638" height="19.207"/>
<rect x="295.188" y="368.262" width="9.604" height="38.414"/>
<rect x="506.465" y="377.865" width="32.637" height="19.207"/>
<rect x="535.275" y="368.262" width="9.603" height="38.414"/>
<polygon points="468.051,392.671 468.051,366.769 458.995,383.036 381.07,383.036 372.016,366.769 372.016,392.671 "/>
<g>
	<defs>
		<rect id="SVGID_5_" x="201" y="118.571" width="438.989" height="366.429"/>
	</defs>
	<clipPath id="SVGID_6_">
		<use xlink:href="#SVGID_5_"  overflow="visible"/>
	</clipPath>
	<path clip-path="url(#SVGID_6_)" d="M336.162,305.839c10.023-14.404,49.916-22.088,51.959-14.404
		C376.132,304.238,358.072,291.435,336.162,305.839"/>
</g>
<polygon fill="#FAA61A" points="545.802,389.869 591.973,358.658 591.973,375.674 639.989,346.822 625.585,390.67 616.097,377.865 
	578.306,391.47 580.033,377.865 "/>
<polygon fill="#FAA61A" points="215.405,390.67 224.894,377.865 262.685,391.47 260.957,377.865 295.188,389.869 249.018,358.658 
	249.018,375.673 201,346.822 "/>
<g>
	<defs>
		<rect id="SVGID_7_" x="201" y="118.571" width="438.989" height="366.429"/>
	</defs>
	<clipPath id="SVGID_8_">
		<use xlink:href="#SVGID_7_"  overflow="visible"/>
	</clipPath>
	<path clip-path="url(#SVGID_8_)" fill="#00642D" d="M460.579,278.469c4.147,0.48,61.496-6.241,61.496-6.241l-18.718,44.918
		l-49.676-19.163l-17.548-20.954L460.579,278.469z"/>
	<path clip-path="url(#SVGID_8_)" fill="#00642D" d="M412.125,333.85c4.146,0.479,80.483,5.602,80.483,5.602l-19.079,12.004h-61.842
		L412.125,333.85z"/>
	<path clip-path="url(#SVGID_8_)" d="M506.465,305.839c-10.023-14.404-49.916-22.088-51.959-14.404
		C466.495,304.238,484.555,291.435,506.465,305.839"/>
	<path clip-path="url(#SVGID_8_)" fill="#00642D" d="M330.012,272.228h69.892V165.24c0,0-88.332-20.419-107.239-20.419
		C316.326,175.432,326.566,227.091,330.012,272.228"/>
	<path clip-path="url(#SVGID_8_)" d="M541.923,170.652c-16.252,43.954-8.294,139.988-1.418,168.799h-34.041
		c-0.017,11.425-9.606,29.675-9.603,48.018c0.004,21.531,9.603,42.831,9.603,48.018c-38.413,38.414-134.448,38.414-172.862,0
		c13.205-51.619,2.801-84.432,0-96.035h-33.037c4.227-48.018,23.434-98.169-5.377-192.069
		C333.602,145.584,527.518,169.913,541.923,170.652 M557.683,166.386l-282.625-47.815l20.13,230.484h30.905
		c3.907,17.206,3.508,44.017-11.698,83.575c40.496,59.804,182.467,70.08,220.881,22.063c-5.373-9.604-25.117-65.009-19.207-105.639
		h28.81L557.683,166.386z"/>
</g>
<polygon points="299.336,209.805 300.264,214.606 543.077,214.606 542.177,209.805 "/>
<rect x="319.176" y="202.001" width="4.129" height="19.007"/>
<rect x="339.02" y="202.001" width="4.129" height="19.007"/>
<rect x="358.863" y="202.001" width="4.129" height="19.007"/>
<rect x="378.708" y="202.001" width="4.128" height="19.007"/>
<rect x="398.553" y="202.001" width="4.129" height="19.007"/>
<rect x="418.396" y="202.001" width="4.129" height="19.007"/>
<rect x="438.241" y="202.001" width="4.128" height="19.007"/>
<rect x="458.085" y="202.001" width="4.128" height="19.007"/>
<rect x="477.93" y="202.001" width="4.127" height="19.007"/>
<rect x="497.773" y="202.001" width="4.127" height="19.007"/>
<rect x="517.617" y="202.001" width="4.128" height="19.007"/>
<polygon points="291.453,143.113 318.674,173.392 361.489,166.588 328.858,195.399 399.902,173.102 374.307,195.399 
	431.094,176.192 419.109,190.819 549.495,168.99 "/>
<g>
	<defs>
		<rect id="SVGID_9_" x="201" y="118.571" width="438.989" height="366.429"/>
	</defs>
	<clipPath id="SVGID_10_">
		<use xlink:href="#SVGID_9_"  overflow="visible"/>
	</clipPath>
	<path clip-path="url(#SVGID_10_)" d="M313.328,268.819l11.061,22.615c0,0,60.43-11.738,95.645-11.738
		c40.07,0,94.043,11.738,94.043,11.738l12.662-22.615H313.328z"/>
</g>
<polygon points="369.756,329.848 360.152,339.451 494.602,339.451 484.998,329.848 422.521,323.444 "/>
</svg>
