<?xml version="1.0" encoding="utf-8"?>
<!-- Generator: Adobe Illustrator 14.0.0, SVG Export Plug-In . SVG Version: 6.00 Build 43363)  -->
<!DOCTYPE svg PUBLIC "-//W3C//DTD SVG 1.1//EN" "http://www.w3.org/Graphics/SVG/1.1/DTD/svg11.dtd">
<svg version="1.1" id="Layer_1" xmlns="http://www.w3.org/2000/svg" xmlns:xlink="http://www.w3.org/1999/xlink" x="0px" y="0px"
	 width="792px" height="612px" viewBox="0 0 792 612" enable-background="new 0 0 792 612" xml:space="preserve">
<polygon fill="#303E50" points="214.526,432.92 218.998,467.198 239.863,509.427 268.18,539.731 291.53,556.126 274.639,527.809 
	255.76,488.561 249.303,455.772 253.276,426.462 264.207,446.334 284.078,464.218 308.422,475.645 287.06,448.817 276.627,422.486 
	274.143,397.646 "/>
<g>
	<defs>
		<rect id="SVGID_1_" x="105" y="29.727" width="584.521" height="543.273"/>
	</defs>
	<clipPath id="SVGID_2_">
		<use xlink:href="#SVGID_1_"  overflow="visible"/>
	</clipPath>
	<path clip-path="url(#SVGID_2_)" fill="#66788D" d="M284.452,262.631c-97.722,152.356-47.221,248.267,7.802,292.952
		c-40.877-29.771-96.845-72.746-67.882-186.502C226.73,361.44,280.079,268.698,284.452,262.631"/>
	<path clip-path="url(#SVGID_2_)" fill="#66788D" d="M243.603,352.219c-33.188,58.219,8.719,152.719,29.582,176.156
		c-37.431-40.875-54.051-115.688-46.513-135.825C230.43,390.975,225.152,360.769,243.603,352.219"/>
	<path clip-path="url(#SVGID_2_)" fill="#66788D" d="M262.446,293.591c-22.574,63.097-2.492,130.575,22.125,150.034
		c-46.636-40.909-42.552-89.621-38.625-110.761C249.374,330.66,245.762,305.215,262.446,293.591"/>
</g>
<polygon fill="#303E50" points="303.28,176.627 287.08,196.287 277.33,220.917 236.926,271.768 226.409,290.374 222.895,307.229 
	220.276,326.504 221.196,342.446 232.713,313.617 249.035,283.888 267.185,260.587 273.336,262.146 219.827,377.155 
	215.409,407.136 273.826,371.257 254.681,358.479 254.681,343.734 302.789,270.993 293.463,263.621 293.953,257.23 309.662,234.623 
	306.717,193.829 307.699,180.559 "/>
<g>
	<defs>
		<rect id="SVGID_3_" x="105" y="29.727" width="584.521" height="543.273"/>
	</defs>
	<clipPath id="SVGID_4_">
		<use xlink:href="#SVGID_3_"  overflow="visible"/>
	</clipPath>
	<path clip-path="url(#SVGID_4_)" fill="#66788D" d="M304.766,176.671C279.11,222.277,243.987,252.748,224,307.179
		c29.389-67.438,62.307-70.646,69.588-93.524C295.946,206.014,300.393,182.738,304.766,176.671"/>
	<path clip-path="url(#SVGID_4_)" fill="#66788D" d="M283.617,226.125c-3.849,2.941-36,32.693-43.545,67.375
		c11.875-33.25,35.875-52.75,46.75-60.659C289.344,230.387,287.465,223.184,283.617,226.125"/>
	<path clip-path="url(#SVGID_4_)" fill="#D2232A" d="M322.115,129.096l-4.051-13.659l2.001-9.475l10.052-3.992l20.934-12.89
		l39.377-36.938l34.206-15.583c0,0,5.483-6.393,32.979,4.76c27.495,11.153,92.957,90.977,90.421,98.322
		c1.223,2.017,4.04,4.828,4.04,4.828l6.702,36.677l-3.713,11.052l-10.54-19.527l-10.637-6.06l-15.029-3.751l-11.229,7.727
		l-27.026-14.076l-43.916-22.894l-44.891-15.487l-32.791-5.916h-17.762l-6.685,7.263L322.115,129.096z"/>
	<path clip-path="url(#SVGID_4_)" fill="#942F34" d="M526.331,106.435c13.372,16.501,22.691,30.347,21.703,33.206
		c1.223,2.016,4.041,4.829,4.041,4.829l6.701,36.675l-3.713,11.053l-10.539-19.526l-10.639-6.06l-15.028-3.752l-11.229,7.727
		l-27.026-14.076l-43.916-22.893l-44.892-15.487c0,0-22.858-2.203-32.79-5.916C454.571,122.471,498.071,135.5,526.331,106.435"/>
	<path clip-path="url(#SVGID_4_)" fill="#66788D" d="M219.268,462.515c-5.153-21.188,3.887-93.812,6.863-104.605
		c17.456-32.982,65.505-84.714,70.331-88.664c1.316,0.27,6.869,2.491,6.869,2.491C292.869,278.685,229.262,326.926,219.268,462.515"
		/>
</g>
<polygon fill="#DAAE8F" points="318.912,137.324 321.017,131.801 342.203,112.484 384.432,118.942 444.047,140.305 478.823,157.196 
	505.153,171.106 482.301,185.018 460.412,193.959 451.5,195.975 444.047,194.457 440.072,189.985 441.066,198.606 444.047,204.889 
	449.513,206.379 452.522,212.838 454.627,217.31 467.396,214.825 485.778,214.328 505.65,214.825 535.459,221.283 539.93,212.838 
	543.407,190.481 552.35,198.606 556.82,215.321 559.305,227.245 570.73,212.838 581.163,209.36 595.074,218.303 598.552,224.762 
	552.35,245.129 461.933,280.402 467.396,293.319 463.422,303.751 411.258,352.438 387.412,340.516 363.565,320.146 349.655,320.146 
	348.662,290.835 316.371,314.682 303.951,316.668 305.938,305.739 321.017,278.912 294.015,265.41 294.015,259.098 310.905,236.188 
	322.068,240.658 360.088,229.232 378.47,217.31 390.978,209.36 401.322,191.973 399.336,185.018 397.815,181.043 403.31,176.571 
	405.297,172.1 400.33,173.094 389.399,170.113 362.076,154.713 335.746,140.305 324.699,137.821 "/>
<g>
	<defs>
		<rect id="SVGID_5_" x="105" y="29.727" width="584.521" height="543.273"/>
	</defs>
	<clipPath id="SVGID_6_">
		<use xlink:href="#SVGID_5_"  overflow="visible"/>
	</clipPath>
	<path clip-path="url(#SVGID_6_)" fill="#AC866C" d="M538.465,223.129c0,0,16.498,8.853,15.677,19.446
		c-1.304,2.897-14.938,7.129-22.188,9.794c2.666-19.544-62.878-52.37-98.476-19.888c-2.666-8.21-4.265-19.289-4.265-19.289
		s8.761-16.856,10.927-24.417c0.973,3.229,3.164,15.389,3.164,15.389L538.465,223.129z"/>
</g>
<polygon fill="#869197" points="452.416,207.057 452.816,211.891 455.613,216.917 463.604,215.203 477.189,213.488 498.362,214.285 
	499.885,204.485 499.445,199.34 498.127,194.741 485.98,199.34 471.316,202.926 461.207,205.342 "/>
<g>
	<defs>
		<rect id="SVGID_7_" x="105" y="29.727" width="584.521" height="543.273"/>
	</defs>
	<clipPath id="SVGID_8_">
		<use xlink:href="#SVGID_7_"  overflow="visible"/>
	</clipPath>
	<path clip-path="url(#SVGID_8_)" fill="#282829" d="M469.982,215.028c8.699,0,15.751-7.052,15.751-15.751
		c0-5.346-2.664-10.07-6.737-12.918c-3.599,1.535-17.084,8.199-24.559,10.363c-0.135,0.832-0.206,1.685-0.206,2.555
		C454.231,207.977,461.283,215.028,469.982,215.028"/>
	<path clip-path="url(#SVGID_8_)" d="M469.982,210.303c6.089,0,11.025-4.936,11.025-11.025c0-4.801-3.067-8.883-7.348-10.397
		c-1.871,1.243-8.632,4.124-13.834,6.099c-0.56,1.32-0.869,2.773-0.869,4.299C458.957,205.367,463.894,210.303,469.982,210.303"/>
	<path clip-path="url(#SVGID_8_)" fill="#FFFFFF" d="M464.152,210.43c1.281,0,2.32-1.039,2.32-2.319c0-1.282-1.039-2.321-2.32-2.321
		c-1.28,0-2.319,1.039-2.319,2.321C461.833,209.391,462.872,210.43,464.152,210.43"/>
</g>
<polygon fill="#303E50" points="440.57,191.475 446.035,195.449 454.48,195.946 468.391,190.481 491.74,179.055 517.077,167.629 
	534.465,168.622 542.911,174.088 549.369,183.526 553.343,197.934 536.949,184.023 524.032,185.018 509.128,188.991 
	488.263,197.438 467.894,203.398 456.468,205.883 448.021,206.379 441.564,201.411 440.072,196.443 "/>
<g>
	<defs>
		<rect id="SVGID_9_" x="105" y="29.727" width="584.521" height="543.273"/>
	</defs>
	<clipPath id="SVGID_10_">
		<use xlink:href="#SVGID_9_"  overflow="visible"/>
	</clipPath>
	<path clip-path="url(#SVGID_10_)" fill="#66788D" d="M441.114,190.291c3.005,3.296,4.92,5.158,4.92,5.158l8.446,0.498l13.91-5.465
		l23.35-11.427l25.336-11.427l17.388,0.994l8.446,5.465c0,0,4.912,4.078,6.458,9.439
		C518.763,158.595,449.062,221.374,441.114,190.291"/>
</g>
<polygon fill="#303E50" points="318.854,139.312 336.242,141.299 355.12,151.234 378.471,164.151 393.871,171.604 398.839,172.101 
	405.297,171.106 403.311,176.571 397.348,181.043 391.387,182.037 378.967,179.553 358.598,172.101 338.229,162.164 
	326.803,159.184 321.338,159.184 317.364,163.158 312.893,172.101 307.428,160.178 311.402,144.279 "/>
<g>
	<defs>
		<rect id="SVGID_11_" x="105" y="29.727" width="584.521" height="543.273"/>
	</defs>
	<clipPath id="SVGID_12_">
		<use xlink:href="#SVGID_11_"  overflow="visible"/>
	</clipPath>
	<path clip-path="url(#SVGID_12_)" fill="#66788D" d="M318.854,139.312l17.389,1.987l18.878,9.936l23.351,12.917l15.4,7.452
		l4.968,0.497l6.458-0.994c0,0,2.76-2.414-0.72,3.158c-8.146,16.54-91.697-50.621-97.149-14.087
		c-0.543-5.152,3.975-15.898,3.975-15.898L318.854,139.312z"/>
</g>
<polygon fill="#282829" points="324.816,159.184 341.209,164.648 357.107,172.101 370.025,176.074 381.947,180.545 391.387,181.539 
	396.852,181.539 398.839,187.998 398.342,197.437 393.871,203.896 386.419,211.348 372.509,220.787 351.146,231.22 329.287,238.672 
	318.357,238.672 311.402,234.201 306.434,216.812 309.912,183.029 313.886,167.629 319.351,160.178 "/>
<g>
	<defs>
		<rect id="SVGID_13_" x="105" y="29.727" width="584.521" height="543.273"/>
	</defs>
	<clipPath id="SVGID_14_">
		<use xlink:href="#SVGID_13_"  overflow="visible"/>
	</clipPath>
	<path clip-path="url(#SVGID_14_)" fill="#414042" d="M324.816,159.184l16.393,5.465l15.898,7.452c0,0,18.561,10.576,33.846,11.021
		c-30.434,46.528-105.391,65.185-78.072-11.811c2.887-8.936,6.47-11.133,6.47-11.133L324.816,159.184z"/>
	<path clip-path="url(#SVGID_14_)" fill="#C9A216" d="M561.409,327.744c2.826-1.545,9.205,0.526,9.205,0.526l-1.842,16.833
		l0.264,18.41l2.63,9.469l3.945,3.55l4.932-4.602l2.17-8.681l-1.052-17.095l5.26-3.945l2.63-5.523l2.104-5.523l2.367,4.208
		l1.842,16.57v18.411l-2.367,13.938l-3.945,10.521l-17.359,5.522l-17.095-2.63l-6.312-22.29v-27.106l7.628-13.463
		C556.412,334.846,558.582,329.289,561.409,327.744"/>
	<path clip-path="url(#SVGID_14_)" fill="#A5850E" d="M560.701,327.807c0,0,5.033-0.182,7.032,0
		c-10.176,16.899-7.053,55.196,4.688,62.364c9.004,5.497,15.4,0.7,15.4,0.7l-10.585,8.713l-26.167-3.271l-1.926-51.788
		L560.701,327.807z"/>
	<path clip-path="url(#SVGID_14_)" fill="#A5850E" d="M582.582,346.629c0.604,5.427-3.086,25.271-3.086,25.271l-3.537,6.919
		c0,0,4.459,5.536,6.92,6.151c6.953-7.962,8.952-35.279,7.397-44.386C588.705,341.596,585.186,344.225,582.582,346.629"/>
</g>
<polygon fill="#D2232A" points="463.002,315.14 498.943,297.083 533.595,292.096 547.095,293.645 535.057,320.643 529.684,317.891 
	520.096,323.438 505.65,314.28 488.697,321.847 475.471,315.828 463.547,317.72 "/>
<g>
	<defs>
		<rect id="SVGID_15_" x="105" y="29.727" width="584.521" height="543.273"/>
	</defs>
	<clipPath id="SVGID_16_">
		<use xlink:href="#SVGID_15_"  overflow="visible"/>
	</clipPath>
	<path clip-path="url(#SVGID_16_)" fill="#7A0708" d="M537.817,294.695c-0.666,3.498-3.598,18.365-3.598,18.365l0.133,5.671
		l11.728-22.388L537.817,294.695z"/>
	<path clip-path="url(#SVGID_16_)" fill="#D2232A" d="M462.429,405.409c0.933,0.187,12.854,1.304,12.854,1.304l9.129-3.726
		l13.6,6.707l17.141-7.638l10.618,3.167l8.012-2.236l-4.658,10.619l-9.315,9.501l-15.09,1.061l-20.865-6.276L462.429,405.409z"/>
	<path clip-path="url(#SVGID_16_)" fill="#7A0708" d="M524.02,318.386c-16.317-20.317-26.621-10.848-41.361-0.454
		c6.133,1.363,6.271,2.81,7.308,3.997C502.334,310.748,517.388,318.806,524.02,318.386"/>
	<path clip-path="url(#SVGID_16_)" fill="#7A0708" d="M517.013,318.369c13.342-9.766,17.388-11.993,19.176-1.26
		c-4.934,1.748-14.141,4.631-15.178,5.819C518.103,320.597,518.096,320.784,517.013,318.369"/>
	<path clip-path="url(#SVGID_16_)" fill="#7A0708" d="M493.23,318.386c-11.647-11.647-16.577-11.114-27.813-3.14
		c6.134,1.363,22.915,4.626,23.953,5.813C492.277,318.728,492.148,320.801,493.23,318.386"/>
	<path clip-path="url(#SVGID_16_)" fill="#F04B47" d="M518.398,404.581c-16.318,20.318-25.485,13.25-41.362,0.454
		c6.133-1.362,6.271-2.809,7.308-3.997C496.712,412.219,511.766,404.161,518.398,404.581"/>
	<path clip-path="url(#SVGID_16_)" fill="#F04B47" d="M511.221,405.143c13.342,9.765,21.76,12.037,19.347,0.716
		c-4.935-1.749-14.142-4.631-15.179-5.82C512.481,402.37,512.304,402.728,511.221,405.143"/>
	<path clip-path="url(#SVGID_16_)" fill="#F04B47" d="M487.609,404.581c-11.648,11.648-16.578,11.115-27.814,3.14
		c6.133-1.361,22.916-4.626,23.953-5.813C486.655,404.239,486.526,402.166,487.609,404.581"/>
</g>
<polygon fill="#DAAE8F" points="504.838,291.783 541.42,272.68 576.782,255.811 598.325,247.315 595.888,265.201 586.538,288.897 
	584.1,310.481 584.1,312.92 588.164,321.456 590.604,329.586 590.604,336.293 585.318,343.445 577.637,347.877 569.589,348.283 
	570.482,329.586 567.027,327.35 560.646,327.35 558.086,331.212 551.257,340.561 545.892,290.971 520.853,292.189 507.276,294.263 
	"/>
<polygon fill="#AC866C" points="501.438,292.946 558.738,266.295 556.74,291.583 531.755,289.766 501.438,296.308 "/>
<polygon fill="#D2232A" points="572.746,399.856 574.102,430.941 571.391,454.415 572.068,480.326 595.739,424.988 602.661,449.34 
	607.986,484.864 610.697,515.853 619.652,493.99 623.573,464.564 622.896,420.889 619.652,390.146 613.359,357.986 598.886,316.361 
	587.655,288.839 583.783,310.407 584.412,314.994 590.366,326.901 595.11,340.858 595.739,360.524 594.432,385.363 588.333,394.147 
	"/>
<g>
	<defs>
		<rect id="SVGID_17_" x="105" y="29.727" width="584.521" height="543.273"/>
	</defs>
	<clipPath id="SVGID_18_">
		<use xlink:href="#SVGID_17_"  overflow="visible"/>
	</clipPath>
	<path clip-path="url(#SVGID_18_)" fill="#7D1F32" d="M571.932,399.085c1.655,46.906-2.933,80.043-3.198,87.861
		c18.171-49.628,18.171-90.515,18.171-90.515S580.594,398.152,571.932,399.085"/>
	<path clip-path="url(#SVGID_18_)" fill="#7D1F32" d="M590.176,394.388c13.991,37.297,21.133,115.429,20.866,123.247
		c12.205-72.443-14.324-149.188-14.324-149.188S595.264,389.89,590.176,394.388"/>
	<path clip-path="url(#SVGID_18_)" fill="#7A0708" d="M488.501,161.252c44.271-12.823,59.489-11.813,64.786-12.184
		c0.181-5.47-1.507-6.865-1.507-6.865l-24.135,1.229l-42.642,15.924C485.004,159.355,483.171,158.143,488.501,161.252"/>
	<path clip-path="url(#SVGID_18_)" fill="#7D1F32" d="M398.206,89.813c48.063,14.143,117.225,73.875,117.225,73.875l-10.477,4.227
		C504.954,167.914,448.359,114.163,398.206,89.813"/>
	<path clip-path="url(#SVGID_18_)" fill="#7D1F32" d="M321.689,129.717l-4.064-13.812l2.008-9.581c0,0,15.358-4.379,20.504-5.904
		c54.696-4.894,169.938,67.271,169.938,67.271l-4.703,1.777l-68.696-35.18l-45.054-15.661l-32.909-5.982h-17.826l-6.709,7.344
		L321.689,129.717z"/>
</g>
<polygon fill="#AC866C" points="406.383,190.449 494.176,164.619 482.782,158.469 404.827,186.229 "/>
<g>
	<defs>
		<rect id="SVGID_19_" x="105" y="29.727" width="584.521" height="543.273"/>
	</defs>
	<clipPath id="SVGID_20_">
		<use xlink:href="#SVGID_19_"  overflow="visible"/>
	</clipPath>
	<path clip-path="url(#SVGID_20_)" fill="#AC866C" d="M561.309,292.803c-1.713-1.142-13.135-0.284-13.135-0.284l1.903,49.971
		c0,0,8.239-10.814,11.231-13.992s9.29-0.286,9.29-0.286l-0.8,20.274h5.502c0,0,13.042-5.793,15.15-15.019
		c-6.325,6.038-19.24,6.638-19.24-0.791c0-1.127,0.881-2.468,0.187-3.551c-1.131-1.767-3.846-2.335-6.136-1.711
		C564.562,325.449,560.726,308.188,561.309,292.803"/>
	<path clip-path="url(#SVGID_20_)" fill="#CFD1D2" d="M409.748,351.758l-0.18,7.162c0,0-10.404,2.038-27.035-1.627
		c10.608,0,14.345-0.222,19.433-3.492c0-3.472,0.104-5.554,0.104-5.554L409.748,351.758z"/>
</g>
<polygon fill="#FFFFFF" points="499.838,193.824 511.91,188.945 528.006,185.613 538.29,186.061 543.046,199.921 538.736,212.928 
	533.291,220.65 516.219,217.359 497.602,213.781 500.217,205.467 499.391,198.133 "/>
<g>
	<defs>
		<rect id="SVGID_21_" x="105" y="29.727" width="584.521" height="543.273"/>
	</defs>
	<clipPath id="SVGID_22_">
		<use xlink:href="#SVGID_21_"  overflow="visible"/>
	</clipPath>
	<path clip-path="url(#SVGID_22_)" fill="#CFD1D2" d="M538.251,184.715l2.366,37.758l-23.104-6.747c0,0,12.992-10.743,11.493-29.365
		C534.503,184.949,538.251,184.715,538.251,184.715"/>
</g>
<polygon fill="#C9A216" points="452.975,323.996 462.648,318.548 478.124,317.093 486.229,320.774 488.817,324.835 487.067,363.383 
	476.324,365.354 459.229,364.435 450.023,357.391 "/>
<g>
	<defs>
		<rect id="SVGID_23_" x="105" y="29.727" width="584.521" height="543.273"/>
	</defs>
	<clipPath id="SVGID_24_">
		<use xlink:href="#SVGID_23_"  overflow="visible"/>
	</clipPath>
	<path clip-path="url(#SVGID_24_)" fill="#A5850E" d="M489.087,322.083l-1.845,41.822c0,0-15.953,6.163-31.11-3.498
		c6.996,3.513,19.304,0.33,24.224-4.283c0.78-9.532,1.658-38.653,1.658-38.653L489.087,322.083z"/>
	<path clip-path="url(#SVGID_24_)" fill="#CFD1D2" d="M483.691,404.973l1.816-37.07c0,0-12.902-6.768-28.892-0.832
		c10.706,0.499,15.627,1.741,20.715,5.012c-0.182,9.449-0.909,32.527-0.909,32.527L483.691,404.973z"/>
	<path clip-path="url(#SVGID_24_)" fill="#CFD1D2" d="M449.393,398.261l1.816-33.208c0,0-9.652-5.146-29.016-1.772
		c11.685,1.291,15.752,2.682,20.84,5.951c-0.183,9.45-0.728,25.156-0.728,25.156L449.393,398.261z"/>
	<path clip-path="url(#SVGID_24_)" fill="#CFD1D2" d="M409.732,375.898l1.817-13.534c0,0-9.578-3.994-29.017-2.303
		c11.685,1.291,15.752,3.212,20.84,6.482c-0.182,9.449-0.727,5.481-0.727,5.481L409.732,375.898z"/>
	<path clip-path="url(#SVGID_24_)" fill="#CFD1D2" d="M514.765,403.404l1.109-35.925c0,0-12.004-4.573-28.317,0.499
		c10.707,0.5,15.629,0.651,20.717,3.922c-0.183,9.45-0.909,33.618-0.909,33.618L514.765,403.404z"/>
	<path clip-path="url(#SVGID_24_)" fill="#CFD1D2" d="M532.702,401.801l1.242-38.401c0,0,0.676-3.625-15.449,1.839
		c1.999,0.399,4.265,0.399,7.847,1.198c-0.182,9.449-0.909,36.513-0.909,36.513L532.702,401.801z"/>
	<path clip-path="url(#SVGID_24_)" fill="#CFD1D2" d="M519.114,321.341l-1.312,41.577c0,0-9.535,5.589-25.849,0.518
		c10.707-0.5,13.158-1.668,18.246-4.939c0.332-9.805,0.9-40.564,0.9-40.564L519.114,321.341z"/>
	<path clip-path="url(#SVGID_24_)" fill="#CFD1D2" d="M536.752,321.341l-1.313,37.234c0,0-9.747,7.862-19.475,4.397
		c5.597-0.267,6.784-1.205,11.873-4.477c0.332-9.805,0.899-40.564,0.899-40.564L536.752,321.341z"/>
	<path clip-path="url(#SVGID_24_)" fill="#CFD1D2" d="M450.978,327.926l-1.313,30.995c0,0-11.326,5.651-27.957,1.986
		c10.705-0.5,15.268-3.837,20.355-7.107c0.332-9.805,0.742-23.17,0.742-23.17L450.978,327.926z"/>
	<path clip-path="url(#SVGID_24_)" fill="#869197" d="M306.311,272.205l17.139,7.825v6.706c0,0-13.079,23.389-15.893,28.647
		c17.756-4.677,24.373-36.872,46.354-39.046c-11.497,3.764-5.497,48.403-5.497,48.403l-76.383,46.575l-15.649-11.923l-1.118-14.159
		L306.311,272.205z"/>
	<path clip-path="url(#SVGID_24_)" fill="#636B70" d="M306.311,272.205c-9.892,42.396-9.186,50.077,8.922,72.182
		c-4.938,3.058-43.201,26.93-43.201,26.93l-15.649-11.923l-1.118-14.159C255.264,345.234,300.915,280.212,306.311,272.205"/>
	<path clip-path="url(#SVGID_24_)" fill="#869197" d="M290.537,387.711l65.328-34.279c0,0,0.248-0.994,9.688,0
		c9.438,0.993,111.282,63.59,124.696,66.074s18.878,3.478,18.878,3.478l11.427-2.483l9.936-10.434l3.975-9.438l-0.497-78.991
		l13.414-18.879l2.483,37.26l-0.994,12.42l2.484,41.731l-4.471,79.984l-13.91,32.292l-15.898,15.401l-15.896,3.974l-27.324-10.433
		l-89.921-64.583l-5.465-8.446v-7.451l-6.955,3.974l-7.452-1.49L290.537,387.711z"/>
	<path clip-path="url(#SVGID_24_)" fill="#636B70" d="M290.537,387.711c0,0,36.935-19.309,44.83-22.806
		c79.321,70.691,182.695,201.45,207.182,104.14c6.396,9.594-9.225,46.772-9.225,46.772l-15.419,11.423l-16.726-1.42l-27.324-10.433
		l-89.921-64.583l-5.465-8.446v-7.451l-6.955,3.974l-7.452-1.49L290.537,387.711z"/>
	<path clip-path="url(#SVGID_24_)" fill="#AC866C" d="M308.883,236.778l-6.663,10.128c0,0-6.531,13.035,4.664,13.325
		c41.176,1.065,75.956-42.109,75.956-42.109l-36.912,18.123l-25.585,5.863L308.883,236.778z"/>
	<path clip-path="url(#SVGID_24_)" fill="#AC866C" d="M319.543,136.925l24.43-23.986c0,0,47.529,3.109,88.395,21.764
		c26.207,12.438,78.621,39.09,78.621,39.09s-82.79-34.469-124.373-39.09c-51.971-5.773-15.99,23.986-15.99,23.986l-27.54-16.879
		L319.543,136.925z"/>
	<path clip-path="url(#SVGID_24_)" fill="#66788D" d="M232.482,354.133l55.078-121.707l19.102-56.856c0,0,0.444,48.417,1.332,56.411
		C277.789,277.288,232.482,354.133,232.482,354.133"/>
	<path clip-path="url(#SVGID_24_)" fill="#66788D" d="M253.137,346.804c-14.658,95.279,29.018,115.506,48.084,124.732
		c-49.562-35.916-42.156-91.879-40.311-105.41C257.438,363.82,263.131,353.582,253.137,346.804"/>
</g>
<polygon fill="#303E50" points="126.096,364.361 119.141,376.284 117.154,390.691 118.644,403.111 124.109,413.047 132.058,420.499 
	144.01,427.82 159.754,428.696 172.547,427.031 189.314,422.296 210.428,412.435 268.678,374.794 324.319,336.54 363.069,320.146 
	384.432,338.031 359.727,351.535 253.773,408.079 206.212,436.273 175.279,444.347 153.478,444.843 135.038,438.385 
	122.122,428.448 110.695,412.551 106.721,394.666 109.577,380.609 117.65,368.248 "/>
<g>
	<defs>
		<rect id="SVGID_25_" x="105" y="29.727" width="584.521" height="543.273"/>
	</defs>
	<clipPath id="SVGID_26_">
		<use xlink:href="#SVGID_25_"  overflow="visible"/>
	</clipPath>
	<path clip-path="url(#SVGID_26_)" fill="#66788D" d="M357.695,320.644c-59.209,21.982-147.516,123.702-222.747,106.495
		c42.679,17.579,62.377,5.049,162.627-56.604c43.453-26.723,60.524-36.885,77.597-41.322
		C372.191,325.555,353.322,326.711,357.695,320.644"/>
</g>
<polygon fill="#303E50" points="462.336,279.508 599.546,225.63 622.181,213.334 643.14,196.344 658.789,178.403 671.363,155.488 
	675.854,137.324 675.556,122.514 672.761,113.292 668.998,106.026 661.023,97.363 670.487,99.319 678.537,109.1 684.219,119.998 
	687.293,133.412 686.733,145.428 684.219,156.887 680.586,169.182 672.761,182.036 661.583,198.43 647.834,212.775 622.181,231.219 
	591.162,249.663 528.9,278.912 458.256,314.681 465.689,298.008 "/>
<g>
	<defs>
		<rect id="SVGID_27_" x="105" y="29.727" width="584.521" height="543.273"/>
	</defs>
	<clipPath id="SVGID_28_">
		<use xlink:href="#SVGID_27_"  overflow="visible"/>
	</clipPath>
	<path clip-path="url(#SVGID_28_)" fill="#66788D" d="M464.178,279.339c0,0,143.302-48.587,178.228-79.954
		c-15.421,24.601-92.826,60.888-173.923,94.1C467.341,285.929,464.178,279.339,464.178,279.339"/>
	<path clip-path="url(#SVGID_28_)" fill="#AC866C" d="M586.223,251.471l14.492-7.996c0,0-21.079,61.132-17.656,68.127
		c-0.334,5.33-24.362,17.223-9.828-4.163c7.133-10.494,2.999-6.497,2.999-6.497l-2.499-20.488L586.223,251.471z"/>
	<path clip-path="url(#SVGID_28_)" fill="#AC866C" d="M349.304,315.933l0.444-3.598c0,0,15.045-23.467,30.193,4.697
		c12.258,22.787,33.481,33.28,33.481,33.28s-19.489-4.761-30.583-12.792c-1.889-1.366-16.79-15.99-16.79-15.99l-14.524,1.599
		L349.304,315.933z"/>
	<path clip-path="url(#SVGID_28_)" fill="#AC866C" d="M463.684,310.05l4.146-9.772c0,0-19.99-11.409-35.14,16.755
		c-12.257,22.786-22.702,33.289-22.702,33.289s8.711-4.77,19.803-12.801c1.889-1.366,16.791-15.99,16.791-15.99l10.726-5.953
		L463.684,310.05z"/>
	<path clip-path="url(#SVGID_28_)" fill="#AC866C" d="M429.178,205.814l-9.449,16.719l-3.635,20.352l-0.35,20.925l5.535,32.443
		c0,0-2.46,7.533-3.536,20.68c1.538-16.068,27.918-61.894,42.053-29.598c-4.141-17.091-6.842-19.089-6.842-19.089h-15.222
		l0.166-22.272l-5.814-15.81l-2.18-11.994l1.816-10.539L429.178,205.814z"/>
</g>
<polygon fill="#7A0708" points="571.824,348.689 582.067,346.575 583.286,353.567 582.474,366.696 579.872,373.077 575.564,377.428 
	570.483,366.696 569.588,349.908 "/>
<g>
	<defs>
		<rect id="SVGID_29_" x="105" y="29.727" width="584.521" height="543.273"/>
	</defs>
	<clipPath id="SVGID_30_">
		<use xlink:href="#SVGID_29_"  overflow="visible"/>
	</clipPath>
	<path clip-path="url(#SVGID_30_)" fill="#FFFFFF" d="M445.289,361.399c2.715,0.517,4.631,1.032,5.75,2.519
		c1.154-1.047,1.116-1.314,3.832-1.658c-2.076-0.344-4.791-2.653-4.791-2.653S449.121,361.228,445.289,361.399"/>
	<path clip-path="url(#SVGID_30_)" d="M365.553,388.704c1.373,0,2.484-1.111,2.484-2.483s-1.111-2.484-2.484-2.484
		c-1.371,0-2.483,1.112-2.483,2.484S364.182,388.704,365.553,388.704"/>
	<path clip-path="url(#SVGID_30_)" d="M352.92,399.214c1.373,0,2.484-1.112,2.484-2.484s-1.111-2.483-2.484-2.483
		c-1.371,0-2.483,1.111-2.483,2.483S351.549,399.214,352.92,399.214"/>
	<path clip-path="url(#SVGID_30_)" d="M334.077,397.15c1.372,0,2.484-1.112,2.484-2.484s-1.112-2.484-2.484-2.484
		s-2.483,1.112-2.483,2.484S332.705,397.15,334.077,397.15"/>
	<path clip-path="url(#SVGID_30_)" d="M308.209,394.595c1.371,0,2.483-1.111,2.483-2.483s-1.112-2.484-2.483-2.484
		c-1.373,0-2.484,1.112-2.484,2.484S306.836,394.595,308.209,394.595"/>
	<path clip-path="url(#SVGID_30_)" d="M320.688,379.266c1.372,0,2.483-1.112,2.483-2.484s-1.111-2.484-2.483-2.484
		s-2.483,1.112-2.483,2.484S319.316,379.266,320.688,379.266"/>
	<path clip-path="url(#SVGID_30_)" d="M361.374,373.742c1.372,0,2.484-1.112,2.484-2.484s-1.112-2.483-2.484-2.483
		s-2.483,1.111-2.483,2.483S360.002,373.742,361.374,373.742"/>
	<path clip-path="url(#SVGID_30_)" d="M275.633,346.915c1.371,0,2.484-1.112,2.484-2.484s-1.113-2.483-2.484-2.483
		c-1.372,0-2.484,1.111-2.484,2.483S274.261,346.915,275.633,346.915"/>
	<path clip-path="url(#SVGID_30_)" d="M310.905,293.815c1.372,0,2.483-1.111,2.483-2.483s-1.111-2.484-2.483-2.484
		s-2.483,1.112-2.483,2.484S309.533,293.815,310.905,293.815"/>
	<path clip-path="url(#SVGID_30_)" d="M514.562,479.588c1.372,0,2.484-1.112,2.484-2.484s-1.112-2.484-2.484-2.484
		s-2.483,1.112-2.483,2.484S513.189,479.588,514.562,479.588"/>
	<path clip-path="url(#SVGID_30_)" d="M473.943,495.516c1.371,0,2.483-1.111,2.483-2.483s-1.112-2.484-2.483-2.484
		c-1.373,0-2.484,1.112-2.484,2.484S472.57,495.516,473.943,495.516"/>
	<path clip-path="url(#SVGID_30_)" d="M505.898,512.904c1.372,0,2.484-1.112,2.484-2.484s-1.112-2.483-2.484-2.483
		c-1.371,0-2.483,1.111-2.483,2.483S504.527,512.904,505.898,512.904"/>
	<path clip-path="url(#SVGID_30_)" d="M440.277,434.761c1.372,0,2.484-1.112,2.484-2.484s-1.112-2.483-2.484-2.483
		s-2.484,1.111-2.484,2.483S438.905,434.761,440.277,434.761"/>
	<path clip-path="url(#SVGID_30_)" d="M447.977,448.365c1.372,0,2.484-1.112,2.484-2.483c0-1.372-1.112-2.484-2.484-2.484
		s-2.484,1.112-2.484,2.484C445.492,447.253,446.604,448.365,447.977,448.365"/>
	<path clip-path="url(#SVGID_30_)" d="M380.066,369.365c1.373,0,2.484-1.112,2.484-2.484s-1.111-2.484-2.484-2.484
		c-1.371,0-2.483,1.112-2.483,2.484S378.695,369.365,380.066,369.365"/>
	<path clip-path="url(#SVGID_30_)" d="M349.407,364.659c1.372,0,2.483-1.111,2.483-2.483s-1.111-2.484-2.483-2.484
		s-2.483,1.112-2.483,2.484S348.035,364.659,349.407,364.659"/>
	<path clip-path="url(#SVGID_30_)" d="M386.916,399.705c1.371,0,2.483-1.112,2.483-2.484s-1.112-2.483-2.483-2.483
		c-1.373,0-2.484,1.111-2.484,2.483S385.543,399.705,386.916,399.705"/>
	<path clip-path="url(#SVGID_30_)" d="M370.486,409.605c1.371,0,2.483-1.112,2.483-2.484c0-1.371-1.112-2.483-2.483-2.483
		c-1.373,0-2.484,1.112-2.484,2.483C368.002,408.493,369.113,409.605,370.486,409.605"/>
	<path clip-path="url(#SVGID_30_)" d="M342.701,410.563c1.371,0,2.483-1.112,2.483-2.483c0-1.372-1.112-2.484-2.483-2.484
		c-1.373,0-2.484,1.112-2.484,2.484C340.217,409.451,341.328,410.563,342.701,410.563"/>
	<path clip-path="url(#SVGID_30_)" d="M334.057,413.544c1.371,0,2.483-1.111,2.483-2.483s-1.112-2.484-2.483-2.484
		c-1.373,0-2.484,1.112-2.484,2.484S332.684,413.544,334.057,413.544"/>
	<path clip-path="url(#SVGID_30_)" d="M409.271,403.708c1.372,0,2.484-1.112,2.484-2.484s-1.112-2.483-2.484-2.483
		s-2.484,1.111-2.484,2.483S407.899,403.708,409.271,403.708"/>
	<path clip-path="url(#SVGID_30_)" d="M416.624,435.9c1.372,0,2.483-1.112,2.483-2.484s-1.111-2.483-2.483-2.483
		s-2.483,1.111-2.483,2.483S415.252,435.9,416.624,435.9"/>
	<path clip-path="url(#SVGID_30_)" d="M391.387,414.538c1.372,0,2.484-1.112,2.484-2.484s-1.112-2.483-2.484-2.483
		s-2.484,1.111-2.484,2.483S390.015,414.538,391.387,414.538"/>
	<path clip-path="url(#SVGID_30_)" d="M493.763,481.605c1.372,0,2.483-1.111,2.483-2.483s-1.111-2.484-2.483-2.484
		s-2.483,1.112-2.483,2.484S492.391,481.605,493.763,481.605"/>
	<path clip-path="url(#SVGID_30_)" d="M494.401,498.199c1.372,0,2.483-1.112,2.483-2.484s-1.111-2.483-2.483-2.483
		s-2.483,1.111-2.483,2.483S493.029,498.199,494.401,498.199"/>
	<path clip-path="url(#SVGID_30_)" d="M477.135,511.805c1.371,0,2.483-1.112,2.483-2.484s-1.112-2.484-2.483-2.484
		c-1.373,0-2.484,1.112-2.484,2.484S475.762,511.805,477.135,511.805"/>
	<path clip-path="url(#SVGID_30_)" d="M436.099,475.843c1.372,0,2.483-1.111,2.483-2.483s-1.111-2.484-2.483-2.484
		s-2.483,1.112-2.483,2.484S434.727,475.843,436.099,475.843"/>
	<path clip-path="url(#SVGID_30_)" d="M458.951,460.386c1.372,0,2.484-1.112,2.484-2.484s-1.112-2.484-2.484-2.484
		s-2.484,1.112-2.484,2.484S457.579,460.386,458.951,460.386"/>
	<path clip-path="url(#SVGID_30_)" d="M455.971,492.833c1.371,0,2.484-1.111,2.484-2.483s-1.113-2.484-2.484-2.484
		c-1.372,0-2.484,1.112-2.484,2.484S454.599,492.833,455.971,492.833"/>
	<path clip-path="url(#SVGID_30_)" d="M499.788,464.814c1.372,0,2.484-1.112,2.484-2.484s-1.112-2.484-2.484-2.484
		s-2.483,1.112-2.483,2.484S498.416,464.814,499.788,464.814"/>
	<path clip-path="url(#SVGID_30_)" d="M535.281,476.439c1.372,0,2.483-1.112,2.483-2.484s-1.111-2.484-2.483-2.484
		s-2.484,1.112-2.484,2.484S533.909,476.439,535.281,476.439"/>
	<path clip-path="url(#SVGID_30_)" d="M519.163,505.651c1.372,0,2.484-1.112,2.484-2.484s-1.112-2.484-2.484-2.484
		s-2.483,1.112-2.483,2.484S517.791,505.651,519.163,505.651"/>
	<path clip-path="url(#SVGID_30_)" d="M431.627,450.308c1.373,0,2.484-1.112,2.484-2.484s-1.111-2.483-2.484-2.483
		c-1.371,0-2.483,1.111-2.483,2.483S430.256,450.308,431.627,450.308"/>
	<path clip-path="url(#SVGID_30_)" d="M413.02,418.016c1.373,0,2.484-1.112,2.484-2.484s-1.111-2.483-2.484-2.483
		c-1.371,0-2.483,1.111-2.483,2.483S411.648,418.016,413.02,418.016"/>
	<path clip-path="url(#SVGID_30_)" d="M341.324,289.522c1.373,0,2.484-1.112,2.484-2.484s-1.111-2.484-2.484-2.484
		c-1.371,0-2.483,1.112-2.483,2.484S339.953,289.522,341.324,289.522"/>
	<path clip-path="url(#SVGID_30_)" d="M326.412,308.758c1.373,0,2.484-1.111,2.484-2.483s-1.111-2.484-2.484-2.484
		c-1.371,0-2.483,1.112-2.483,2.484S325.041,308.758,326.412,308.758"/>
	<path clip-path="url(#SVGID_30_)" d="M338.229,321.459c1.372,0,2.483-1.111,2.483-2.483s-1.111-2.484-2.483-2.484
		s-2.484,1.112-2.484,2.484S336.857,321.459,338.229,321.459"/>
	<path clip-path="url(#SVGID_30_)" d="M313.81,328.362c1.372,0,2.483-1.111,2.483-2.483s-1.111-2.484-2.483-2.484
		s-2.483,1.112-2.483,2.484S312.438,328.362,313.81,328.362"/>
	<path clip-path="url(#SVGID_30_)" d="M284.256,316.172c1.371,0,2.484-1.112,2.484-2.484c0-1.371-1.113-2.483-2.484-2.483
		c-1.372,0-2.484,1.112-2.484,2.483C281.771,315.06,282.884,316.172,284.256,316.172"/>
	<path clip-path="url(#SVGID_30_)" d="M293.198,345.216c1.372,0,2.483-1.112,2.483-2.484s-1.111-2.483-2.483-2.483
		s-2.484,1.111-2.484,2.483S291.826,345.216,293.198,345.216"/>
	<path clip-path="url(#SVGID_30_)" d="M298.309,320.452c1.371,0,2.483-1.112,2.483-2.484s-1.112-2.483-2.483-2.483
		c-1.373,0-2.484,1.111-2.484,2.483S296.936,320.452,298.309,320.452"/>
	<path clip-path="url(#SVGID_30_)" d="M280.273,333.276c-1.289,0-2.334-1.112-2.334-2.484s1.045-2.484,2.334-2.484
		s2.334,1.112,2.334,2.484S281.562,333.276,280.273,333.276"/>
	<path clip-path="url(#SVGID_30_)" d="M479.479,469.705c1.371,0,2.483-1.111,2.483-2.483s-1.112-2.484-2.483-2.484
		c-1.373,0-2.484,1.112-2.484,2.484S478.105,469.705,479.479,469.705"/>
	<path clip-path="url(#SVGID_30_)" d="M454.48,479.054c1.371,0,2.483-1.111,2.483-2.483s-1.112-2.484-2.483-2.484
		c-1.373,0-2.484,1.112-2.484,2.484S453.107,479.054,454.48,479.054"/>
	<path clip-path="url(#SVGID_30_)" d="M470.875,443.285c1.371,0,2.483-1.112,2.483-2.484s-1.112-2.484-2.483-2.484
		c-1.373,0-2.484,1.112-2.484,2.484S469.502,443.285,470.875,443.285"/>
	<path clip-path="url(#SVGID_30_)" d="M539.229,463.405c1.372,0,2.484-1.112,2.484-2.484s-1.112-2.484-2.484-2.484
		s-2.484,1.112-2.484,2.484S537.857,463.405,539.229,463.405"/>
	<path clip-path="url(#SVGID_30_)" d="M518.008,487.505c1.372,0,2.484-1.111,2.484-2.483s-1.112-2.484-2.484-2.484
		c-1.371,0-2.483,1.112-2.483,2.484S516.637,487.505,518.008,487.505"/>
	<path clip-path="url(#SVGID_30_)" d="M540.737,352.438c1.372,0,2.483-1.112,2.483-2.484s-1.111-2.484-2.483-2.484
		s-2.484,1.112-2.484,2.484S539.365,352.438,540.737,352.438"/>
	<path clip-path="url(#SVGID_30_)" d="M541.172,386.158c1.372,0,2.483-1.112,2.483-2.484c0-1.371-1.111-2.483-2.483-2.483
		s-2.484,1.112-2.484,2.483C538.688,385.046,539.8,386.158,541.172,386.158"/>
	<path clip-path="url(#SVGID_30_)" d="M543.091,325.611c1.372,0,2.484-1.112,2.484-2.484s-1.112-2.484-2.484-2.484
		s-2.484,1.112-2.484,2.484S541.719,325.611,543.091,325.611"/>
	<path clip-path="url(#SVGID_30_)" d="M422.686,464.218c1.371,0,2.483-1.112,2.483-2.483c0-1.372-1.112-2.484-2.483-2.484
		c-1.373,0-2.484,1.112-2.484,2.484C420.201,463.105,421.312,464.218,422.686,464.218"/>
	<path clip-path="url(#SVGID_30_)" d="M396.617,445.495c1.373,0,2.484-1.112,2.484-2.484s-1.111-2.484-2.484-2.484
		c-1.371,0-2.483,1.112-2.483,2.484S395.246,445.495,396.617,445.495"/>
	<path clip-path="url(#SVGID_30_)" d="M377.418,425.556c1.372,0,2.484-1.112,2.484-2.484s-1.112-2.484-2.484-2.484
		s-2.484,1.112-2.484,2.484S376.046,425.556,377.418,425.556"/>
	<path clip-path="url(#SVGID_30_)" d="M359.533,427.133c1.372,0,2.484-1.111,2.484-2.483s-1.112-2.484-2.484-2.484
		s-2.484,1.112-2.484,2.484S358.161,427.133,359.533,427.133"/>
	<path clip-path="url(#SVGID_30_)" d="M341.303,381.78c1.373,0,2.484-1.112,2.484-2.484s-1.111-2.483-2.484-2.483
		c-1.371,0-2.483,1.111-2.483,2.483S339.932,381.78,341.303,381.78"/>
	<path clip-path="url(#SVGID_30_)" d="M402.782,387.711c1.372,0,2.483-1.112,2.483-2.484s-1.111-2.483-2.483-2.483
		s-2.484,1.111-2.484,2.483S401.41,387.711,402.782,387.711"/>
	<path clip-path="url(#SVGID_30_)" d="M647.356,209.715c-32.822,30.116-150.528,77.455-179.659,96.966
		c3.949-3.129-0.332,0.337,4.217-4.558c0.414-6.385-1.896-14.171-4.215-18.783c58.867-22.816,97.47-38.355,138.418-58.195
		c59.142-28.656,91.828-92.976,57.701-125.583C711.598,133.146,667.07,191.627,647.356,209.715 M592.89,224.064
		c-14.372,6.643-33.095,14.08-34.032,14.472c-1.298-7.007-8.443-13.099-15.949-16.931c6.228-6.547,7.423-16.356,4.254-24.693
		c7.112,8.129,7.063,32.229,12.038,40.779c4.718-10.529,10.937-18.424,14.128-20.254
		C578.039,214.738,583.948,212.786,592.89,224.064 M550.051,176.798c-3.787-9.392-10.838-16.879-27.423-15.183
		c-5.832,0.08-14.749,4.162-18.284,5.623c-3.496-1.729-10.261-5.348-13.889-7.172c3.716-1.529,42.6-13.449,54.911-14.611
		C547.746,149.256,550.761,162.939,550.051,176.798 M542.91,137.078c-13.988,0.527-59.715,14.838-64.532,16.714
		c-76.437-42.12-132.376-49.975-151.045-41.798c3.819,1.327,5.317,2.218,7.368,3.358c0.683,1.059-0.967,2.563-1.84,3.679
		c-2.304,2.94-3.629,4.634-6.789,6.789c-2.599-2.576-3.857-9.067-2.198-14.271c43.333-13.676,71.01-74.601,112.524-71.188
		C466.471,42.834,537.891,124.814,542.91,137.078 M321.977,143.867c20.899-4.049,70.395,39.957,82.006,29.672
		c-11.483,23.576-61.248-16.121-77.746-17.342c-9.509-0.832-12.334,9.934-13.248,12.882
		C311.639,169.08,307.344,147.525,321.977,143.867 M309.59,242.967c18.134,21.837,64.479-16.967,71.273-22.316
		c-9.162,12.459-7.941,10.873-14.883,20.187c-7.722,12.604-3.861,25.155,0.516,34.255c-5.301,0.344-11.192,0.837-13.16,1.273
		c-15.764,3.496-11.721,32.014-12.311,46.695c-0.824-1.527-17.008,7.612-64.695,40.56c-8.204-5.813-10.16-16.408-6.334-27.699
		c1.768-5.776,33.48-49.038,39.422-58.081c8.224,3.668,8.773,3.98,10.195,5.362c1.244,1.974-5.576,18.213-12.144,32.337
		c10.74-15.912,19.979-27.829,19.384-34.194c-0.596-6.366-18.277-13.584-21.049-15.058
		C297.04,262.809,303.195,254.645,309.59,242.967 M308.224,180.742c-4.595,16.146-8.694,39.992-3.85,54.342
		c-21.72,33.746-14.093,33.344-4.597,38.673c-4.658,6.582-39.067,51.338-43.309,63.497c-7.107,17.323-4.982,28.365,6.475,37.164
		c-13.74,9.162-28.256,18.559-43.397,28.717C226.717,343.679,272.146,306.893,308.224,180.742 M297.792,188.294
		c-0.746,6.829-11.675,32.317-25.337,63.864c-12.322,10.269-36.85,33.569-50.032,80.783
		C232.234,255.988,270.964,238.62,297.792,188.294 M359.025,326.701c7.527,0,15.773,8.814,21.838,13.689
		c-5.987-5.812-143.262,74.765-169.917,89.21c-83.806,44.005-127.027-37.719-84.161-66.223
		c-20.836,15.417-19.522,75.533,42.335,67.255C237.927,417.964,312.447,338.725,359.025,326.701 M219.546,433.986
		c12.071-6.334,14.978-8.72,27.122-15.936c-11.846,50.587,23.126,115.246,39.199,132.931
		C215.447,495.465,220.045,440.498,219.546,433.986 M255.092,414.312c2.834-1.725,11.059-6.55,14.755-8.644
		c-1.862,18.257,11.55,46.574,30.925,65.577C277.671,459.323,259.041,440.693,255.092,414.312 M302.705,387.528
		c13.006-7.959,41.248-23.033,56.209-31.115c62.546,5.248,176.048,142.63,182.208,46.798c1.256-14.308-0.221-34.171-0.221-83.844
		c1.558-4.51,1.737-5.739,3.538-10.842c1.035,34.828,4.02,137.048-5.688,178.109c-8.567,30.611-17.483,38.056-45.298,32.234
		c-24.297-5.085-93.922-62.104-101.988-67.686s-11.543-16.504-9.624-22.981c-3.606,2.194-11.61,7.078-21.386,2.622
		C343.863,419.873,310.097,392.764,302.705,387.528 M561.685,329.564c2.451-2.438,5.867-1.938,6.894-0.186
		c-1.957,14.014-6.801,55.424,15.648,56.262c-3.54-2.607-4.658-3.504-6.893-6.612c6.16-5.743,8.263-16.454,7.244-29.654
		c3.287-3.025,5.682-6.587,7.348-14.332c3.331,22.604-0.433,53.377-5.217,56.747c-8.812,6.361-27.074,5.217-29.589-0.279
		C549.956,378.022,547.152,348.381,561.685,329.564 M573.018,473.356c6.707-37.774,4.782-51.667,4.224-70.997
		c3.6-0.543,4.733-1.349,8.941-2.745c3.074,8.663,4.241,13.12,6.459,21.083C590.511,426.499,580.562,453.368,573.018,473.356
		 M592.89,395.36c7.203-4.224,10.783-41.527,1.184-64.771c-1.261-4.486-7.183-14.316-7.891-16.627
		c0.789-4.192,1.103-5.167,2.63-11.417c48.044,113.431,31.401,185.219,23.267,209.624
		C611.672,449.229,596.815,404.021,592.89,395.36 M579.874,351.506c0.22,10.029-0.531,15.826-3.378,22.678
		c-5.385-5.234-4.887-12.356-5.185-21.02C575.257,353.427,576.586,352.985,579.874,351.506 M510.6,292.355
		c13.298-6.93,27.8-12.617,43.3-19.813c0,7.97,0.593,11.672-3.108,13.819C547.256,288.411,538.777,285.768,510.6,292.355
		 M467.736,315.425c36.848-22.601,62.805-19.41,74.104-17.481c-1.371,4.933-4.263,11.707-7.572,19.171
		c0-3.478-2.98-7.949-13.363,3.944c-5.674-10.386-18.919-17.04-31.647-1.84C482.342,312.952,478.349,310.82,467.736,315.425
		 M487.338,324.282c-0.16,8.144-0.799,26.508-1.438,36.6c-11.601,4.025-26.687,3.209-33.442-3.392
		c-0.656-10.441,0.024-19.987,1.104-30.543C458.203,318.927,481.128,315.305,487.338,324.282 M422.283,294.195
		c-8.82-25.205-7.621-59.748,5.152-82.431c0.064,8.275,8.41,35.353,9.198,41.585C438.958,271.709,426.857,281.844,422.283,294.195
		 M451.354,397.232c0.396-10.716,0.693-17.869,1.811-29.356c9.582-2.874,21.599-1.511,31.02,1.203
		c-0.374,15.353-1.031,20.389-1.881,31.932C472.505,405.27,457.443,403.025,451.354,397.232 M530.225,404.839
		c-3.583,15.658-18.524,25.562-59.299,4.332c5.992,1.602,10.594-1.333,12.309-3.01c14.152,10.622,23.709,7.829,31.414-1.2
		C518.064,406.593,529.175,411.506,530.225,404.839 M514.804,367.396c0.188,6.311-0.569,32.195-2.395,34.492
		c-5.11,6.687-20.48,4.152-26.708-0.479c0.908-10.771,1.285-20.195,1.668-31.586C493.96,364.715,506.021,366.438,514.804,367.396
		 M489.009,361.489c0.446-12.455,0.896-24.113,1.203-38.005c6.461-7.057,21.761-7.242,27.013-0.587
		c-0.081,6.807-0.824,33.014-1.782,38.282C508.257,366.279,496.279,365.48,489.009,361.489 M519.064,362.273
		c0.231-12.301,1.133-26.007,1.84-37.167c7.005-5.275,11.476-6.552,11.476-1.782c-0.011,7.281,0.779,29.076-0.149,33.98
		C531.683,360.203,522.151,362.752,519.064,362.273 M531.933,396.354c0,4.797-2.996,7.108-15.351,3.539
		c0.148-8.802,0.967-20.203,1.639-32.453c3.409-1.789,14.159-7.75,13.712-1.789C532.082,375.637,531.933,386.814,531.933,396.354
		 M448.042,355.65c-7.296,5.647-27.662,6.979-33.394,3.166c-0.039-1.633,0-2.635-0.043-4.496
		c9.441-9.279,21.666-18.59,35.646-23.694C449.43,340.473,449.119,347.407,448.042,355.65 M447.674,394.658
		c-12.35-6.665-21.463-12.372-33.212-19.637c0.144-4.529,0.099-4.893,0.187-9.292c0.978-5.169,34.004-1.577,34.865,1.328
		C449.951,368.532,449.736,387.394,447.674,394.658 M409.012,365.904c0.141,3.492-0.139,1.294-0.139,6.044
		c-8.663-3.772-16.768-8.243-25.965-12.251C398.609,363.017,407.16,362.128,409.012,365.904 M369.279,353.432
		c8.244-3.913,12.481-5.352,19.748-7.588c6.949,3.601,11.043,5.285,19.705,8.499c0.006,1.045-0.037,1.794-0.168,4.338
		C402.085,360.841,372.771,354.829,369.279,353.432 M393.578,200.725c-8.127,14.149-33.697,26.178-54.829,32.752
		c-4.384,1.364-10.824,4.199-18.032,2.576c-6.311-1.421-11.677-12.419-7.307-56.21c3.259-25.683,17.078-16.866,24.916-13.991
		c2.347,0.832,42.463,20.354,55.726,17.662C395.917,185.13,399.227,190.911,393.578,200.725 M404.094,159.232
		c1.27,4.018,1.971,6.235,0.525,9.478c-1.887,3.088-5.5,2.037-8.164,1.194c-35.66-14.453-49.943-38.104-68.584-36.58
		c11.105-10.661,16.197-16.094,16.712-16.771c37.825-2.303,118.767,33.389,128.577,39.35c-25.449,9.485-46.965,16.996-73.692,26.791
		C410.273,175.387,410.994,167.439,404.094,159.232 M549.468,241.99c-20.282,8.113-59.865,22.597-85,32.149
		c-8.05-15.716-10.585-13.282-24.522-7.911c0.838-3.929,0.643-8.113,0.369-12.513c-0.787-12.668-5.938-23.104-9.199-34.591
		c0.621-6.746,4.23-15.523,5.887-22.079c-4.122-3.204-10.965,5.638-17.075,17.349c-13.022,27.457-0.103,76.47-0.956,87.897
		c-0.345,4.598-1.745,10.012-1.104,15.455c1.259-4.198-0.959-12.558,19.502-45.999c2.395-2.998,8.904-3.132,12.513-0.736
		c3.897,5.069,11.875,19.517,11.776,24.655c1.068,9.908-47.905,51.39-50.783,52.992c-29.564-8.28-37.436-39.706-57.406-32.752
		c-0.384-18.959,0.63-27.968,2.863-30.65c3.253-2.135,8.424-3.787,13.56-1.675c5.058,12.31,7.149,23.243,10.072,33.429
		c0.772,0.929-2.468-34.525-9.613-58.051c-1.768-9.657,28.212-45.948,36.454-68.603c41.189-16.867,74.975-27.756,78.775-28.492
		c7.08,3.353,10.447,4.981,15.525,7.699c-10.748,5.864-21.529,13.367-32.824,19.385c-5.947,3.17-26.054,11.265-28.336-4.783
		c-5.787,17.957,5.197,25.043,9.568,23.92c-1.189,3.492,0.406,8.123,2.163,9.561c-1.782,1.101-4.597,3.158-6.308,6.183
		C476.132,206.24,546.368,221.359,549.468,241.99 M529.261,216.761c-10.42-3.223-14.465-4.097-28.403-5.403
		c1.593-3.877,4.031-10.179,1.186-16.682c13.008-5.283,21.094-7.661,31.002-5.831C539.01,196.602,536.461,211.63,529.261,216.761
		 M496.15,197.115c3.18,3.059,2.521,8.41,0.278,14.063c-12.937-0.172-26.737,1.38-38.45,4.634c-2.396-1.285-3.496-3.863-3.681-7.359
		C470.645,205.432,482.736,202.195,496.15,197.115 M442.89,195.941c19.06,18.976,87.962-61.017,109.387-1.875
		c-4.082-5.758-4.454-14.47-23.254-12.437C508.753,183.82,442.919,222.316,442.89,195.941 M581.58,312.985
		c3.156,5.21,19.634,27.093-10.269,30.467c0.048-6.263,0.34-9.416,1.848-14.665c-0.819-4.086-7.925-8.538-13.54-1.649
		c-1.749,2.526-2.675,3.404-4.264,5.619c-0.152-6.215-1.351-27.911-1.537-34.66c4.375,0.404,7.778-2.209,8.521-3.371
		c3.924-6.145,2.295-12.807,1.437-26.924c5.338-2.644,7.503-4.04,13.624-6.915c-14.233,29.128,5.277,33.335-5.575,49.025
		c16.949-13.86-5.59-21.38,15.201-54.508c6.093-2.863,1.002-0.34,6.344-3.023C589.462,270.947,577.72,304.322,581.58,312.985
		 M663.616,93.058c-45.852-24.673-82.799,37.725-46.666,53.941c12.115,4.557,23.891,0.803,27.23-7.36
		c-34.45,21.381-54.421-36.744-0.735-43.055c53.958-1.439,32.675,93.822-41.772,124.062c-8.623-10.858-19.514-25.646-33.747-11.523
		c-3.24,3.214-4.285,4.843-7.452,9.688c-0.285-11.47-0.07-30.775-0.389-45.849c-0.222-10.433-1.85-21.183-5.053-27.19
		c0.927-0.545,3.742-0.742,3.351-1.697c-0.69-1.674-0.887-4.236-2.661-7.784c-1.304-0.261-4.071-0.575-5.171-0.666
		c0.014,0.024,0.032,0.051,0.046,0.073c-0.743-0.108-0.609-0.12-0.046-0.073c-18.981-31.816-85.374-110.909-124.956-105.646
		c-41.487,5.515-66.959,63.521-109.117,76.187c-3.774,9.84-0.384,20.442,2.399,28.157c-12.279,2.856-12.782,13.029-13.247,26.66
		c-59.704,98.403-103.266,111.364-85.242,215.495c11.233-68.368,33.614-93.447,46.552-110.831
		c-37.558,77.799-54.325,107.754-57.724,143.73c-27.303,16.114-75.368,30.446-87.95-5.888c-3.271-11.716-3.77-36.295,18.4-40.111
		c43.551-7.498,36.887,37.16,16.192,41.951c18.632,0.393,40.354-46.375-3.313-51.889c-30.384-3.835-61.127,27.59-41.214,65.505
		c27.733,51.48,94.18,21.673,98.155,19.885c13.637,111.78,115.437,136.965,118.959,133.934
		c-71.144-34.954-75.738-118.658-74.248-136.915c13.787,33.907,70.826,52.085,74.222,48.031
		c-43.601-20.514-55.168-72.22-49.653-84.807c4.334-2.707,6.212-3.808,9.264-5.541c5.127,2.847,67.203,47.058,74.621,49.968
		s10.116-2.228,14.193-4.083c-1.016,3.252-1.292,8.28,4.703,13.77c65.479,59.967,73.475,61.742,103.679,82.619
		c21.824,12.276,64.462,11.34,71.07-51.734c2.599-24.808,2.665-46.038,3.998-82.306c3.446,0.279,4.108,1.471,8.19,1.389
		c2.15,10.963,0.34,82.251-5.998,105.947c4.174-0.244,26.623-57.451,33.488-76.542c7.349,32.104,12.3,82.141,12.145,97.887
		c21.533-28.523,35.733-126.02-15.549-244.648c7.346-20.759,9.262-28.796,12.615-40.496
		C676.295,214.419,720.318,125.634,663.616,93.058"/>
	<path clip-path="url(#SVGID_30_)" fill="#636B70" d="M541.193,436.309c0,0-10.216,42.642-39.533,35.091
		c-29.315-7.552-82.619-77.289-82.619-77.289s65.789,50.95,86.174,57.745C526.535,458.962,541.193,436.309,541.193,436.309"/>
	<path clip-path="url(#SVGID_30_)" d="M542.059,433.317c-22.573,51.72-44.357,27.423-126.329-41.633
		C499.191,453.437,523.535,463.721,542.059,433.317"/>
	<path clip-path="url(#SVGID_30_)" d="M543.604,187.392c1.143,6.019,7.424,18.89,5.141,42.591
		c1.396,1.745,9.225,13.068,9.225,13.068s1.23-6.215,6.195-18.779C559.441,227.83,552.04,197.232,543.604,187.392"/>
</g>
</svg>
